<?xml version="1.0" standalone="no"?>
<!DOCTYPE svg PUBLIC "-//W3C//DTD SVG 20010904//EN"
 "http://www.w3.org/TR/2001/REC-SVG-20010904/DTD/svg10.dtd">
<svg version="1.0" xmlns="http://www.w3.org/2000/svg"
 width="70.000000pt" height="70.000000pt" viewBox="0 0 70.000000 70.000000"
 preserveAspectRatio="xMidYMid meet">
<metadata>
Created by potrace 1.14, written by Peter Selinger 2001-2017
</metadata>
<g transform="translate(0.000000,70.000000) scale(0.100000,-0.100000)"
fill="#000000" stroke="none">
<path d="M190 563 c-25 -4 -100 -75 -100 -93 0 -6 -6 -10 -14 -10 -28 0 -46
-30 -46 -78 0 -50 21 -92 45 -92 8 0 18 -6 22 -14 4 -7 18 -18 31 -25 12 -6
22 -18 22 -26 0 -8 4 -15 8 -15 5 0 31 -20 58 -46 27 -25 64 -52 81 -61 18 -8
31 -19 28 -23 -3 -4 1 -13 8 -18 10 -8 19 -4 37 18 14 17 30 30 36 30 6 0 31
20 56 45 25 25 51 45 57 45 6 0 11 4 11 8 0 13 65 76 96 92 26 14 29 21 32 73
4 62 -8 87 -40 87 -10 0 -21 7 -25 16 -3 9 -17 27 -29 40 -13 12 -24 28 -24
34 0 5 -22 10 -50 10 -44 0 -55 -4 -90 -37 -22 -21 -40 -44 -40 -50 0 -7 -7
-13 -15 -13 -8 0 -15 9 -15 20 0 10 -10 24 -22 31 -13 6 -30 19 -38 29 -18 21
-45 29 -80 23z"/>
</g>
</svg>
